Suppliers ID,Show ORDER_MISMATCH,Show B2B_MISMATCH,Show ENTRY_MISMATCH,Show SHIPPING_MISMATCH,Show TRANSACTION_MISMATCH
<Global Settings>,true ,true ,true ,true ,true
28040482,false,false,false,false,false
28012499,false,false,false,false,false
28170743,false,false,false,false,false
29901128,false,false,false,false,false
29907798,false,false,false,false,false
30200501,false,false,true,true,false
30200552,false,false,true,true,false
30200673,false,false,true,true,false
30201900,false,false,false,false,false
30203092,false,false,true,true,false
30204233,false,false,false,false,false
30204497,false,false,true,true,false
30300193,true,false,true,true,false
30200001,false,false,false,false,false
30205554,false,false,false,false,false
30200076,false,false,false,false,false
30202318,false,false,false,false,false
28900215,false,false,false,false,false
12544673,true,false,true,true,false
30258721,false,false,true,true,false
30258922,false,false,false,false,false
28715887,false,false,true,true,false
27172852,false,false,true,true,false
